Samusik data and LLM data mishmash test
…
# Tidy
llm <- lapply(llm, function(i) stringr::str_split(i, ",")[[1]] %>% as.numeric()) %>%
  do.call(rbind, .) %>%
  as_tibble()

names(llm) <- names(sam)
llm$dataset <- "llm"

And now for the mishmash

cells <- bind_rows(sam, llm)
cells

## # A tibble: 11,058 × 52
##      Time Cell_length   BC1   BC2   BC3    BC4     BC5    BC6   Ter119 CD45.2  Ly6G     IgD   CD11c   F480
##     <dbl>       <dbl> <dbl> <dbl> <dbl>  <dbl>   <dbl>  <dbl>    <dbl>  <dbl> <dbl>   <dbl>   <dbl>  <dbl>
##  1 5.69e6          25  85.8  85.2  90.8  4.66  13.7     2.13  -0.727     1.24 1.61  -0.0776 -0.500  -0.306
##  2 1.29e7          20 297.  301.  341.   4.70   4.21   13.7   -0.471     9.23 3.52  -0.553  -0.659   2.80 
##  3 1.96e6          26 326.  210.  379.  18.5    4.20    1.54  -0.702     1.87 1.38  -0.692  -0.0681 10.5  
##  4 1.19e7          21 313.  256.  250.   1.46   4.82    0.680 -0.207     5.11 1.89  -0.486  -0.383  -0.590
##  5 1.46e7          14  69.1  54.4 104.   8.91   0.576   1.87  -0.00141  29.8  2.66  28.9    -0.842  -0.713
##  6 1.52e7          36 166.  168.  173.  10.7    2.33    1.58   1.07      9.57 1.74  -0.223   9.48    5.21 
##  7 3.41e6          20 126.  167.   91.5  0.696 -0.391  -0.691 -0.0548    1.91 3.78  -0.292  -0.0116 -0.461
##  8 4.41e6          36 157.  161.  152.   2.51   4.23   -0.191  0.777    12.7  3.32   8.96   -0.162   3.11 
##  9 1.56e7          23 335.  231.  247.   8.58  -0.0991 -0.268 -0.463     9.04 0.319 -0.335  -0.578   1.38 
## 10 2.19e6          24 252.  222.  207.   8.63   5.18    0.453 -0.654     2.61 2.49  -0.634   3.71    0.689
## # ℹ 11,048 more rows
## # ℹ 38 more variables: CD3 <dbl>, NKp46 <dbl>, CD23 <dbl>, CD34 <dbl>, CD115 <dbl>, CD19 <dbl>,
## #   `120g8` <dbl>, CD8 <dbl>, Ly6C <dbl>, CD4 <dbl>, CD11b <dbl>, CD27 <dbl>, CD16_32 <dbl>,
## #   SiglecF <dbl>, Foxp3 <dbl>, B220 <dbl>, CD5 <dbl>, FceR1a <dbl>, TCRgd <dbl>, CCR7 <dbl>, Sca1 <dbl>,
## #   CD49b <dbl>, cKit <dbl>, CD150 <dbl>, CD25 <dbl>, TCRb <dbl>, CD43 <dbl>, CD64 <dbl>, CD138 <dbl>,
## #   CD103 <dbl>, IgM <dbl>, CD44 <dbl>, MHCII <dbl>, DNA1 <dbl>, DNA2 <dbl>, Cisplatin <dbl>,
## #   beadDist <dbl>, dataset <chr>

From here, we do our pre-processing. Do we remember what the surface
markers are for the Samusik dataset?

setwd(here("..", "local_data"))
md <- readr::read_rds("marker_types.rds")
type_markers <- dplyr::filter(md, marker_class == "type")$marker_name 

surface <- cells[type_markers]
surface <- asinh(surface/5) %>% as_tibble()
surface

## # A tibble: 11,058 × 39
##       Ter119 CD45.2   Ly6G     IgD    CD11c    F480      CD3    NKp46     CD23    CD34   CD115    CD19
##        <dbl>  <dbl>  <dbl>   <dbl>    <dbl>   <dbl>    <dbl>    <dbl>    <dbl>   <dbl>   <dbl>   <dbl>
##  1 -0.145     0.245 0.317  -0.0155 -0.0999  -0.0611 -0.0581  -0.0905  -0.119   -0.0184  0.0476  0.143 
##  2 -0.0941    1.37  0.655  -0.110  -0.131    0.534  -0.0873  -0.151   -0.0282   2.84    0.615   1.34  
##  3 -0.140     0.366 0.272  -0.138  -0.0136   1.49    0.126   -0.148   -0.133    1.15   -0.0747  0.488 
##  4 -0.0414    0.897 0.369  -0.0971 -0.0765  -0.118  -0.00431 -0.137   -0.122    0.724  -0.0745 -0.0533
##  5 -0.000282  2.49  0.509   2.46   -0.168   -0.142   0.115    0.528    0.899   -0.108  -0.0133  1.27  
##  6  0.212     1.40  0.341  -0.0446  1.40     0.911   0.106    0.506    0.121   -0.0541  0.900  -0.0794
##  7 -0.0110    0.374 0.697  -0.0584 -0.00232 -0.0920 -0.116    0.156   -0.00247 -0.0465 -0.115   0.0331
##  8  0.155     1.67  0.623   1.35   -0.0324   0.587  -0.0438   0.243   -0.119    0.394   0.841  -0.143 
##  9 -0.0924    1.35  0.0638 -0.0669 -0.115    0.272  -0.153    0.00586  0.172   -0.173   1.75   -0.127 
## 10 -0.130     0.501 0.479  -0.126   0.687    0.137  -0.0124  -0.103   -0.0717   0.831   0.0725  0.511 
## # ℹ 11,048 more rows
## # ℹ 27 more variables: `120g8` <dbl>, CD8 <dbl>, Ly6C <dbl>, CD4 <dbl>, CD11b <dbl>, CD27 <dbl>,
## #   CD16_32 <dbl>, SiglecF <dbl>, Foxp3 <dbl>, B220 <dbl>, CD5 <dbl>, FceR1a <dbl>, TCRgd <dbl>,
## #   CCR7 <dbl>, Sca1 <dbl>, CD49b <dbl>, cKit <dbl>, CD150 <dbl>, CD25 <dbl>, TCRb <dbl>, CD43 <dbl>,
## #   CD64 <dbl>, CD138 <dbl>, CD103 <dbl>, IgM <dbl>, CD44 <dbl>, MHCII <dbl>
…
